…
    ## Rows: 47156 Columns: 7
    ## ── Column specification ────────────────────────────────────────────────────────
    ## Delimiter: ","
    ## chr (6): ride_id, rideable_type, weekdays, start_station_name, end_station_n...
    ## dbl (1): duration
    ## 
    ## ℹ Use `spec()` to retrieve the full column specification for this data.
    ## ℹ Specify the column types or set `show_col_types = FALSE` to quiet this message.

``` r
citibike_data <- bind_rows(jan_2020, jan_2024, july_2020, july_2024)
citibike_data |> filter(is.na(start_station_name))
```

    ## # A tibble: 43 × 9
    ##    ride_id   rideable_type weekdays duration start_station_name end_station_name
    ##    <chr>     <chr>         <chr>       <dbl> <chr>              <chr>           
    ##  1 C9E7F443… electric_bike Thursday     8.21 <NA>               <NA>            
    ##  2 AF1944E7… electric_bike Thursday    32.3  <NA>               <NA>            
    ##  3 1603F7D0… electric_bike Thursday    60.1  <NA>               <NA>            
    ##  4 10E2E265… electric_bike Saturday    61.1  <NA>               <NA>            
    ##  5 44319590… electric_bike Tuesday      4.06 <NA>               Carlton Ave & P…
    ##  6 4BD3F72C… electric_bike Wednesd…    60.1  <NA>               <NA>            
    ##  7 FA267D98… electric_bike Tuesday     60.1  <NA>               <NA>            
    ##  8 C60EFE52… electric_bike Wednesd…    13.5  <NA>               Lewis Ave & Dec…
    ##  9 FFFCAF7B… electric_bike Friday     122.   <NA>               <NA>            
    ## 10 019B9CDA… electric_bike Friday      60.4  <NA>               <NA>            
    ## # ℹ 33 more rows
    ## # ℹ 3 more variables: member_casual <chr>, month <chr>, year <dbl>
…
